M. Clarke Miller Data Analysis Portfolio - Fitting Exercise
…
#Okay, let's take a look at what we have going on here.

print(Combo_Mav1)

# A tibble: 120 × 7
       Y  DOSE   AGE   SEX  RACE    WT    HT
   <dbl> <dbl> <int> <int> <int> <dbl> <dbl>
 1 2691.    25    42     1     2  94.3  1.77
 2 2639.    25    24     1     2  80.4  1.76
 3 2150.    25    31     1     1  71.8  1.81
 4 1789.    25    46     2     1  77.4  1.65
 5 3126.    25    41     2     2  64.3  1.56
 6 2337.    25    27     1     2  74.1  1.83
 7 3007.    25    23     1     1  87.9  1.85
 8 2796.    25    20     1    88  61.9  1.73
 9 3866.    25    23     1     2  65.3  1.65
10 1762.    25    28     1     1 104.   1.84
# ℹ 110 more rows
…
NEW STUFF FOR Unit 10.

# Setting that seed. (I'm already looking aroind at the lifeguard chairs because I'm in over my head, but Allons-y!)

rngseed = 1234

#Getting rid of RACE.

Combo_Mav2 <- Combo_Mav1 %>% 
  select(Y,DOSE,AGE,SEX,WT,HT)

print(Combo_Mav2)

# A tibble: 120 × 6
       Y  DOSE   AGE   SEX    WT    HT
   <dbl> <dbl> <int> <int> <dbl> <dbl>
 1 2691.    25    42     1  94.3  1.77
 2 2639.    25    24     1  80.4  1.76
 3 2150.    25    31     1  71.8  1.81
 4 1789.    25    46     2  77.4  1.65
 5 3126.    25    41     2  64.3  1.56
 6 2337.    25    27     1  74.1  1.83
 7 3007.    25    23     1  87.9  1.85
 8 2796.    25    20     1  61.9  1.73
 9 3866.    25    23     1  65.3  1.65
10 1762.    25    28     1 104.   1.84
# ℹ 110 more rows

#Okay, this water is a bit deep for me.
set.seed(rngseed)

data_split <- initial_split(Combo_Mav2, prop = 3/4)

# Create data frames for the two sets:
train_data <- training(data_split)
test_data  <- testing(data_split)

print(train_data)

# A tibble: 90 × 6
       Y  DOSE   AGE   SEX    WT    HT
   <dbl> <dbl> <int> <int> <dbl> <dbl>
 1 3004.  50      28     1  83.2  1.74
 2 1347.  25      41     1  81    1.75
 3 2772.  37.5    28     1  78.3  1.72
 4 2028.  25      28     2  58.9  1.58
 5 2353.  50      37     1  99.1  1.78
 6  826.  25      30     1 105.   1.88
 7 3866.  25      23     1  65.3  1.65
 8 3126.  25      41     2  64.3  1.56
 9 1108.  25      48     2  79.5  1.62
10 2815.  37.5    26     1  84.5  1.77
# ℹ 80 more rows

print(test_data)

# A tibble: 30 × 6
       Y  DOSE   AGE   SEX    WT    HT
   <dbl> <dbl> <int> <int> <dbl> <dbl>
 1 2549.  25      46     1  83    1.78
 2 2353.  37.5    43     2  64.4  1.56
 3 2009.  37.5    19     1  86.1  1.91
 4 2934.  37.5    46     1  71.2  1.67
 5 2085.  37.5    37     1 102.   1.81
 6 4835.  50      42     2  58    1.58
 7 3514.  50      32     1  78.9  1.74
 8 3906.  50      47     1  89.3  1.69
 9 3105.  50      45     1  99.1  1.81
10 2027.  25      20     1  80.5  1.88
# ℹ 20 more rows
…
